Automated Bibliographic Reference Parsing and Cleaning • Ranystyle
…
Here’s a basic example of how you might use Ranystyle to parse and clean references from a PDF document:

library(Ranystyle)
# Path to your PDF document
pdf_path <- system.file("extdata", package = "Ranystyle") 
files <- list.files(pdf_path)

# Extract references from the PDF
extracted_refs <- find_ref_to_df(input = paste0(pdf_path, "/", files[1]))
#> [1] "anystyle -f json find C:/Users/goutsmedt/AppData/Local/Temp/RtmpEtApZg/temp_libpath489842e7298e/Ranystyle/extdata/example_doc_1.pdf "
#> [1] "anystyle --overwrite -f ref find C:/Users/goutsmedt/AppData/Local/Temp/RtmpEtApZg/temp_libpath489842e7298e/Ranystyle/extdata/example_doc_1.pdf ./"

# Print the extracted references
print(extracted_refs)
#> # A tibble: 81 × 23
#>    id_doc doc         id_ref author   title  year `container-title` volume pages
#>     <int> <chr>       <chr>  <list>   <chr> <int> <chr>             <chr>  <chr>
#>  1      1 example_do… 1_1    <tibble> ECB …  2023 Financial Times   <NA>   <NA> 
#>  2      1 example_do… 1_2    <tibble> Rule…  1983 Journal of Monet… 12     101–…
#>  3      1 example_do… 1_3    <tibble> Idea…  2009 Journal of Europ… 16     701–…
#>  4      1 example_do… 1_4    <tibble> A st…  1999 Scottish Journal… 46     17–39
#>  5      1 example_do… 1_5    <tibble> Tech…  2018 International Po… 12     328–…
#>  6      1 example_do… 1_6    <tibble> Late…  2003 Journal of Machi… 3      <NA> 
#>  7      1 example_do… 1_7    <tibble> Plan…  2022 Zeitschrift Für … 32     707–…
#>  8      1 example_do… 1_8    <tibble> Repu…  2010 <NA>              <NA>   <NA> 
#>  9      1 example_do… 1_9    <tibble> The …  2016 At the Macroecon… <NA>   <NA> 
#> 10      1 example_do… 1_10   <tibble> Effe…  2017 At the EUROFI Co… <NA>   <NA> 
#> # ℹ 71 more rows
#> # ℹ 14 more variables: location <chr>, publisher <chr>, type <chr>, date <chr>,
#> #   other_date <chr>, other_title <chr>, url <chr>, issue <chr>, doi <chr>,
#> #   edition <chr>, genre <chr>, note <chr>, editor <chr>, full_ref <chr>
…
