…
Depending on whether your start from PDFs or from .txt. or vectors, you can use two functions: `find_ref_to_df()` and `parse_ref_to_df()`. These functions create a data frame (a `tibble` more precisely) gathering the various information of the references extracted.


```r
doc <- files[1]
print(doc)
#> [1] "example_doc_1.pdf"
data_ref <- find_ref_to_df(input = paste0(pdf_path, "/", doc),
                           no_layout = FALSE)
#> [1] "anystyle -f json find C:/Users/goutsmedt/Documents/MEGAsync/Research/R/Packages/Ranystyle/inst/extdata/example_doc_1.pdf "
#> [1] "anystyle --overwrite -f ref find C:/Users/goutsmedt/Documents/MEGAsync/Research/R/Packages/Ranystyle/inst/extdata/example_doc_1.pdf ./"

print(data_ref)
#> # A tibble: 81 × 23
#>    id_doc doc        id_ref author   title  year `container-title` volume pages location publisher type  date  other_date
#>     <int> <chr>      <chr>  <list>   <chr> <int> <chr>             <chr>  <chr> <chr>    <chr>     <chr> <chr> <chr>     
#>  1      1 example_d… 1_1    <tibble> ECB …  2023 Financial Times   <NA>   <NA>  <NA>     <NA>      arti… 2023  <NA>      
#>  2      1 example_d… 1_2    <tibble> Rule…  1983 Journal of Monet… 12     101–… <NA>     <NA>      arti… 1983  <NA>      
#>  3      1 example_d… 1_3    <tibble> Idea…  2009 Journal of Europ… 16     701–… <NA>     <NA>      arti… 2009  <NA>      
#>  4      1 example_d… 1_4    <tibble> A st…  1999 Scottish Journal… 46     17–39 <NA>     <NA>      arti… 1999  <NA>      
#>  5      1 example_d… 1_5    <tibble> Tech…  2018 International Po… 12     328–… <NA>     <NA>      arti… 2018  <NA>      
#>  6      1 example_d… 1_6    <tibble> Late…  2003 Journal of Machi… 3      <NA>  <NA>     <NA>      arti… 2003  <NA>      
#>  7      1 example_d… 1_7    <tibble> Plan…  2022 Zeitschrift Für … 32     707–… <NA>     <NA>      arti… 2022  <NA>      
#>  8      1 example_d… 1_8    <tibble> Repu…  2010 <NA>              <NA>   <NA>  <NA>     Princeto… book  2010  <NA>      
#>  9      1 example_d… 1_9    <tibble> The …  2016 At the Macroecon… <NA>   <NA>  <NA>     <NA>      pape… 2016  <NA>      
#> 10      1 example_d… 1_10   <tibble> Effe…  2017 At the EUROFI Co… <NA>   <NA>  <NA>     <NA>      pape… 2017  <NA>      
#> # ℹ 71 more rows
#> # ℹ 9 more variables: other_title <chr>, url <chr>, issue <chr>, doi <chr>, edition <chr>, genre <chr>, note <chr>,
#> #   editor <chr>, full_ref <chr>
```
…
```r
pdfs <- files %>% 
  .[stringr::str_detect(., "\\.pdf$")]
data_ref <- find_ref_to_df(input = paste0(pdf_path, "/", pdfs),
                           clean_ref = FALSE,
                           no_layout = FALSE)
#> [1] "anystyle -f json find C:/Users/goutsmedt/Documents/MEGAsync/Research/R/Packages/Ranystyle/inst/extdata/example_doc_1.pdf "
#> [1] "anystyle -f json find C:/Users/goutsmedt/Documents/MEGAsync/Research/R/Packages/Ranystyle/inst/extdata/example_doc_2.pdf "
#> [1] "anystyle -f json find C:/Users/goutsmedt/Documents/MEGAsync/Research/R/Packages/Ranystyle/inst/extdata/example_doc_3.pdf "
#> [1] "anystyle --overwrite -f ref find C:/Users/goutsmedt/Documents/MEGAsync/Research/R/Packages/Ranystyle/inst/extdata/example_doc_1.pdf ./"
#> [1] "anystyle --overwrite -f ref find C:/Users/goutsmedt/Documents/MEGAsync/Research/R/Packages/Ranystyle/inst/extdata/example_doc_2.pdf ./"
#> [1] "anystyle --overwrite -f ref find C:/Users/goutsmedt/Documents/MEGAsync/Research/R/Packages/Ranystyle/inst/extdata/example_doc_3.pdf ./"

data_ref
#> # A tibble: 266 × 21
#>    id_doc doc      id_ref author date  title type  `container-title` volume pages  url    issue  doi   publisher location
#>     <int> <chr>    <chr>  <list> <lis> <lis> <chr> <list>            <list> <list> <list> <list> <chr> <chr>     <chr>   
#>  1      1 example… 1_1    <df>   <chr> <chr> arti… <chr [1]>         <NULL> <NULL> <NULL> <NULL> <NA>  <NA>      <NA>    
#>  2      1 example… 1_2    <df>   <chr> <chr> arti… <chr [1]>         <chr>  <chr>  <chr>  <chr>  10.1… <NA>      <NA>    
#>  3      1 example… 1_3    <df>   <chr> <chr> arti… <chr [1]>         <chr>  <chr>  <NULL> <chr>  <NA>  <NA>      <NA>    
#>  4      1 example… 1_4    <df>   <chr> <chr> arti… <chr [1]>         <chr>  <chr>  <NULL> <chr>  <NA>  <NA>      <NA>    
#>  5      1 example… 1_5    <df>   <chr> <chr> arti… <chr [1]>         <chr>  <chr>  <NULL> <chr>  <NA>  <NA>      <NA>    
#>  6      1 example… 1_6    <df>   <chr> <chr> arti… <chr [1]>         <chr>  <NULL> <NULL> <NULL> <NA>  <NA>      <NA>    
#>  7      1 example… 1_7    <df>   <chr> <chr> arti… <chr [1]>         <chr>  <chr>  <chr>  <chr>  10.1… <NA>      <NA>    
#>  8      1 example… 1_8    <df>   <chr> <chr> book  <NULL>            <NULL> <NULL> <NULL> <NULL> <NA>  Princeto… <NA>    
#>  9      1 example… 1_9    <df>   <chr> <chr> pape… <chr [1]>         <NULL> <NULL> <chr>  <NULL> <NA>  <NA>      <NA>    
#> 10      1 example… 1_10   <df>   <chr> <chr> pape… <chr [1]>         <NULL> <NULL> <chr>  <NULL> <NA>  <NA>      <NA>    
#> # ℹ 256 more rows
#> # ℹ 6 more variables: edition <chr>, genre <chr>, note <chr>, editor <list>, `collection-title` <chr>, full_ref <chr>
```

As you may have seen, anystyle runs twice per document: the second time serve to extract the references in a .ref format, and is used to keep the whole reference in a column of the table. This could be useful for cleaning the data later. 


```r
data_ref %>% 
  dplyr::select(id_ref, full_ref)
#> # A tibble: 266 × 2
#>    id_ref full_ref                                                                                                       
#>    <chr>  <chr>                                                                                                          
#>  1 1_1    Arnold, M. (2023). ECB must do more to tackle inflation “Monster”, says christine lagarde’. Financial Times.   
#>  2 1_2    Barro, R. J., & Gordon, D. B. (1983). Rules, discretion and reputation in a model of monetary policy’. Journal…
#>  3 1_3    Béland, D. (2009). Ideas, institutions, and policy change’. Journal of European Public Policy, 16(5), 701–718. 
#>  4 1_4    Berger, H., & Haan, J. (1999). A state within the state? An event study on the bundesbank (1948–1973)’. Scotti…
#>  5 1_5    Best, J. (2018). Technocratic exceptionalism: Monetary policy and the fear of democracy’. International Politi…
#>  6 1_6    Blei, D. M., Ng, A. Y., & Jordan, M. I. (2003). Latent Dirichlet Allocation’. Journal of Machine Learning Rese…
#>  7 1_7    Braun, B., Carlo, D., & Diessner, S. (2022). Planning Laissez-Faire: Supranational Central Banking and Structu…
#>  8 1_8    Carpenter, D. P. (2010). Reputation and power: Organizational image and pharmaceutical regulation at the FDA. …
#>  9 1_9    Constâncio, V. (2016). The challenge of low real interest rates for monetary policy’. At the Macroeconomics Sy…
#> 10 1_10   Constâncio, V. (2017). Effectiveness of monetary union and the capital markets union’. At the EUROFI Conferenc…
#> # ℹ 256 more rows
```
The data extracted are still a bit messy. Most columns are in list format, with sometimes two or more element per reference (like two dates, or two titles). The `clean_ref()` function implements different cleaning processes: 

- It collapses non-essential columns (i.e. other than `date` and `title`), combining multiple entries into a single text string.
- It reorganizes `author` information, creating a full name from given, particle, and family components. Also add an `author_order` column. The column will remain in a list format.
- It separates and cleans dates and titles, organizing them into primary and additional information. The first date and first title are save in `date` and `title`. The other dates and titles are saved in `other_date` and `other_title`.
- It extracts the year from the date and places it in a separate column.
- It removes extraneous punctuation and trims whitespace from character columns.
- It relocates key columns to a more standardized order for easier analysis and readability.


```r
data_ref <- clean_ref(data_ref) 

data_ref
#> # A tibble: 266 × 24
#>    id_doc doc        id_ref author   title  year `container-title` volume pages location publisher type  date  other_date
#>     <int> <chr>      <chr>  <list>   <chr> <int> <chr>             <chr>  <chr> <chr>    <chr>     <chr> <chr> <chr>     
#>  1      1 example_d… 1_1    <tibble> ECB …  2023 Financial Times   <NA>   <NA>  <NA>     <NA>      arti… 2023  <NA>      
#>  2      1 example_d… 1_2    <tibble> Rule…  1983 Journal of Monet… 12     101–… <NA>     <NA>      arti… 1983  <NA>      
#>  3      1 example_d… 1_3    <tibble> Idea…  2009 Journal of Europ… 16     701–… <NA>     <NA>      arti… 2009  <NA>      
#>  4      1 example_d… 1_4    <tibble> A st…  1999 Scottish Journal… 46     17–39 <NA>     <NA>      arti… 1999  <NA>      
#>  5      1 example_d… 1_5    <tibble> Tech…  2018 International Po… 12     328–… <NA>     <NA>      arti… 2018  <NA>      
#>  6      1 example_d… 1_6    <tibble> Late…  2003 Journal of Machi… 3      <NA>  <NA>     <NA>      arti… 2003  <NA>      
#>  7      1 example_d… 1_7    <tibble> Plan…  2022 Zeitschrift Für … 32     707–… <NA>     <NA>      arti… 2022  <NA>      
#>  8      1 example_d… 1_8    <tibble> Repu…  2010 <NA>              <NA>   <NA>  <NA>     Princeto… book  2010  <NA>      
#>  9      1 example_d… 1_9    <tibble> The …  2016 At the Macroecon… <NA>   <NA>  <NA>     <NA>      pape… 2016  <NA>      
#> 10      1 example_d… 1_10   <tibble> Effe…  2017 At the EUROFI Co… <NA>   <NA>  <NA>     <NA>      pape… 2017  <NA>      
#> # ℹ 256 more rows
#> # ℹ 10 more variables: other_title <chr>, url <chr>, issue <chr>, doi <chr>, edition <chr>, genre <chr>, note <chr>,
#> #   editor <chr>, `collection-title` <chr>, full_ref <chr>
```
…
